Notes
…
# 把ID换成球员名字
career <- Master %>%
  tbl_df() %>%
  select(playerID, nameFirst, nameLast) %>%
  unite(name, nameFirst, nameLast, sep = " ") %>%
  inner_join(career, by = "playerID") %>%
  select(-playerID)
# 展示数据
career

## # A tibble: 9,429 × 4
##                 name     H    AB average
##                <chr> <int> <int>   <dbl>
## 1         Hank Aaron  3771 12364  0.3050
## 2       Tommie Aaron   216   944  0.2288
## 3          Andy Abad     2    21  0.0952
## 4        John Abadie    11    49  0.2245
## 5     Ed Abbaticchio   772  3044  0.2536
## 6        Fred Abbott   107   513  0.2086
## 7        Jeff Abbott   157   596  0.2634
## 8        Kurt Abbott   523  2044  0.2559
## 9         Ody Abbott    13    70  0.1857
## 10 Frank Abercrombie     0     4  0.0000
## # ... with 9,419 more rows
…
如果我打算交易一个球员，那么如何筛选候选人？

先选那些击球率更好的球员

# 对比打算交易的球员与其他球员
career_eb_vs_piazza <- bind_cols(
  career_eb,
  credible_interval_approx(piazza$alpha1, piazza$beta1,
                           career_eb$alpha1, career_eb$beta1)) %>%
  select(name, posterior, conf.low, conf.high)

career_eb_vs_piazza

## # A tibble: 9,429 × 4
##                    name posterior conf.low conf.high
##                   <chr>     <dbl>    <dbl>     <dbl>
## 1        Rogers Hornsby  2.84e-11   0.0345    0.0639
## 2          Ed Delahanty  7.10e-07   0.0218    0.0518
## 3  Shoeless Joe Jackson  8.77e-08   0.0278    0.0611
## 4         Willie Keeler  4.62e-06   0.0183    0.0472
## 5            Nap Lajoie  1.62e-05   0.0158    0.0441
## 6            Tony Gwynn  1.83e-05   0.0157    0.0442
## 7        Harry Heilmann  7.19e-06   0.0180    0.0476
## 8            Lou Gehrig  1.43e-05   0.0167    0.0461
## 9        Billy Hamilton  7.03e-06   0.0190    0.0503
## 10        Eddie Collins  2.00e-04   0.0113    0.0393
## # ... with 9,419 more rows

# 计算q值
career_eb_vs_piazza <- career_eb_vs_piazza %>%
  arrange(posterior) %>%
  mutate(qvalue = cummean(posterior))

# 筛选那些q值小于0.05的
better <- career_eb_vs_piazza %>%
  filter(qvalue < .05)

better

## # A tibble: 49 × 5
##                    name posterior conf.low conf.high   qvalue
##                   <chr>     <dbl>    <dbl>     <dbl>    <dbl>
## 1        Rogers Hornsby  2.84e-11   0.0345    0.0639 2.84e-11
## 2  Shoeless Joe Jackson  8.77e-08   0.0278    0.0611 4.39e-08
## 3          Ed Delahanty  7.10e-07   0.0218    0.0518 2.66e-07
## 4         Willie Keeler  4.62e-06   0.0183    0.0472 1.35e-06
## 5        Billy Hamilton  7.03e-06   0.0190    0.0503 2.49e-06
## 6        Harry Heilmann  7.19e-06   0.0180    0.0476 3.27e-06
## 7            Lou Gehrig  1.43e-05   0.0167    0.0461 4.85e-06
## 8            Nap Lajoie  1.62e-05   0.0158    0.0441 6.27e-06
## 9            Tony Gwynn  1.83e-05   0.0157    0.0442 7.61e-06
## 10           Bill Terry  3.03e-05   0.0162    0.0472 9.88e-06
## # ... with 39 more rows
…
算法优化的期望是将这两个分布分拆开，前面一次分拆已经产生微弱差异，下面就通过贝叶斯思想对数据更新这个差异重新分组让两者分开

assignments <- starting_data %>%
  dplyr::select(-cluster) %>%
  crossing(fits) %>%
  mutate(likelihood = prior * VGAM::dbetabinom.ab(H, AB, alpha, beta)) %>%
  group_by(playerID) %>%
  top_n(1, likelihood) %>%
  ungroup()
# 去除掉原有分组，根据更新的后验概率重新分组
assignments

## # A tibble: 3,310 × 11
##     playerID               name     H    AB average cluster alpha  beta
##        <chr>              <chr> <int> <int>   <dbl>  <fctr> <dbl> <dbl>
## 1  abbotje01        Jeff Abbott    11    42  0.2619       B  12.9  45.6
## 2  abbotji01         Jim Abbott     2    21  0.0952       A  12.6  45.0
## 3  abbotku01        Kurt Abbott   475  1860  0.2554       B  12.9  45.6
## 4  abbotky01        Kyle Abbott     3    31  0.0968       A  12.6  45.0
## 5  abercre01 Reggie Abercrombie    86   386  0.2228       B  12.9  45.6
## 6  abnersh01        Shawn Abner   110   531  0.2072       B  12.9  45.6
## 7  abreubo01        Bobby Abreu  1607  5395  0.2979       B  12.9  45.6
## 8  abreuto01         Tony Abreu   129   509  0.2534       B  12.9  45.6
## 9  acevejo01       Jose Acevedo     8   101  0.0792       A  12.6  45.0
## 10 aceveju01       Juan Acevedo     6    65  0.0923       A  12.6  45.0
## # ... with 3,300 more rows, and 3 more variables: number <int>,
## #   prior <dbl>, likelihood <dbl>
…
